Day 3: Text Analysis
…
library(tidytext)
library(dplyr)
tidy_snp<- snp_filtered %>%
    select(created_time,message) %>%
    unnest_tokens("word", message)

tidy_snp %>%
  count(word) %>%
    arrange(desc(n))

## # A tibble: 1,620 x 2
##    word             n
##    <chr>        <int>
##  1 the            303
##  2 to             146
##  3 independence   144
##  4 and            136
##  5 of             125
##  6 u              113
##  7 scotland       112
##  8 a              104
##  9 in             104
## 10 for             95
## #  with 1,610 more rows
…
## Warning in tm_map.SimpleCorpus(snpc, removeWords, stopwords("english")):
## transformation drops documents

## Tidy Text object
 data("stop_words")
    tidy_snp<-tidy_snp %>%
      anti_join(stop_words)

## Joining, by = "word"

tidy_snp %>%
  count(word) %>%
    arrange(desc(n))

## # A tibble: 1,329 x 2
##    word             n
##    <chr>        <int>
##  1 independence   144
##  2 scotland       112
##  3 independent     73
##  4 http            55
##  5 scottish        39
##  6 snp             32
##  7 uk              31
##  8 2019            29
##  9 campaign        28
## 10 votesnp.com     28
## #  with 1,319 more rows
…
#take a peak
  tidy_snp %>%
  count(word) %>%
    arrange(desc(n))

## # A tibble: 1,077 x 2
##    word            n
##    <chr>       <int>
##  1 independ      218
##  2 scotland      134
##  3 http           55
##  4 scottish       39
##  5 vote           36
##  6 uk             35
##  7 snp            34
##  8 campaign       32
##  9 govern         32
## 10 votesnp.com    28
## #  with 1,067 more rows
…
